FPGA/FPGA_riscv/RISC_complete/simulation/modelsim/msim_transcript
# Reading X:/altera/13.1/modelsim_ase/tcl/vsim/pref.tcl 
# do RISC_complete_run_msim_rtl_verilog.do 
# if {[file exists rtl_work]} {
# 	vdel -lib rtl_work -all
# }
# vlib rtl_work
# vmap work rtl_work
# Copying X:\altera\13.1\modelsim_ase\win32aloem/../modelsim.ini to modelsim.ini
# Modifying modelsim.ini
# ** Warning: Copied X:\altera\13.1\modelsim_ase\win32aloem/../modelsim.ini to modelsim.ini.
#          Updated modelsim.ini.
# 
# vlog -vlog01compat -work work +incdir+X:/altera/13.1/quartus/Project/Term_project/Library {X:/altera/13.1/quartus/Project/Term_project/Library/ALU_16bits.v}
# Model Technology ModelSim ALTERA vlog 10.1d Compiler 2012.11 Nov  2 2012
# -- Compiling module ALU_16bits
# 
# Top level modules:
# 	ALU_16bits
# vlog -vlog01compat -work work +incdir+X:/altera/13.1/quartus/Project/Term_project/Library {X:/altera/13.1/quartus/Project/Term_project/Library/Mux4to1_16bits.v}
# Model Technology ModelSim ALTERA vlog 10.1d Compiler 2012.11 Nov  2 2012
# -- Compiling module Mux4to1_16bits
# 
# Top level modules:
# 	Mux4to1_16bits
# vlog -vlog01compat -work work +incdir+X:/altera/13.1/quartus/Project/Term_project/Library {X:/altera/13.1/quartus/Project/Term_project/Library/RF8_16bits.v}
# Model Technology ModelSim ALTERA vlog 10.1d Compiler 2012.11 Nov  2 2012
# -- Compiling module RF8_16bits
# 
# Top level modules:
# 	RF8_16bits
# vlog -vlog01compat -work work +incdir+X:/altera/13.1/quartus/Project/Term_project/Library {X:/altera/13.1/quartus/Project/Term_project/Library/Mux8to1_16bits.v}
# Model Technology ModelSim ALTERA vlog 10.1d Compiler 2012.11 Nov  2 2012
# -- Compiling module Mux8to1_16bits
# 
# Top level modules:
# 	Mux8to1_16bits
# vlog -vlog01compat -work work +incdir+X:/altera/13.1/quartus/Project/Term_project/Library {X:/altera/13.1/quartus/Project/Term_project/Library/Memory256_16bits.v}
# Model Technology ModelSim ALTERA vlog 10.1d Compiler 2012.11 Nov  2 2012
# -- Compiling module Memory256_16bits
# -- Compiling module Memory32_8bits
# 
# Top level modules:
# 	Memory256_16bits
# vlog -vlog01compat -work work +incdir+X:/altera/13.1/quartus/Project/Term_project/Library {X:/altera/13.1/quartus/Project/Term_project/Library/Instruction_Decoder.v}
# Model Technology ModelSim ALTERA vlog 10.1d Compiler 2012.11 Nov  2 2012
# -- Compiling module Instruction_Decoder
# 
# Top level modules:
# 	Instruction_Decoder
# vlog -vlog01compat -work work +incdir+X:/altera/13.1/quartus/Project/Term_project/Library {X:/altera/13.1/quartus/Project/Term_project/Library/FA_16bits.v}
# Model Technology ModelSim ALTERA vlog 10.1d Compiler 2012.11 Nov  2 2012
# -- Compiling module FA_16bits
# 
# Top level modules:
# 	FA_16bits
# vlog -vlog01compat -work work +incdir+X:/altera/13.1/quartus/Project/Term_project/Library {X:/altera/13.1/quartus/Project/Term_project/Library/DFF_16bits.v}
# Model Technology ModelSim ALTERA vlog 10.1d Compiler 2012.11 Nov  2 2012
# -- Compiling module DFF_16bits
# 
# Top level modules:
# 	DFF_16bits
# vlog -vlog01compat -work work +incdir+X:/altera/13.1/quartus/Project/Term_project/Library {X:/altera/13.1/quartus/Project/Term_project/Library/Decoder3to8.v}
# Model Technology ModelSim ALTERA vlog 10.1d Compiler 2012.11 Nov  2 2012
# -- Compiling module Decoder3to8
# 
# Top level modules:
# 	Decoder3to8
# vlog -vlog01compat -work work +incdir+X:/altera/13.1/quartus/Project/Term_project/Library {X:/altera/13.1/quartus/Project/Term_project/Library/Controller.v}
# Model Technology ModelSim ALTERA vlog 10.1d Compiler 2012.11 Nov  2 2012
# -- Compiling module Controller
# 
# Top level modules:
# 	Controller
# vlog -vlog01compat -work work +incdir+X:/altera/13.1/quartus/Project/Term_project/RISC_complete {X:/altera/13.1/quartus/Project/Term_project/RISC_complete/RISC_complete.v}
# Model Technology ModelSim ALTERA vlog 10.1d Compiler 2012.11 Nov  2 2012
# -- Compiling module RISC_complete
# 
# Top level modules:
# 	RISC_complete
# vlog -vlog01compat -work work +incdir+X:/altera/13.1/quartus/Project/Term_project/Library {X:/altera/13.1/quartus/Project/Term_project/Library/Fowarding_unit.v}
# Model Technology ModelSim ALTERA vlog 10.1d Compiler 2012.11 Nov  2 2012
# -- Compiling module Forwarding_unit
# 
# Top level modules:
# 	Forwarding_unit
# vlog -vlog01compat -work work +incdir+X:/altera/13.1/quartus/Project/Term_project/Library {X:/altera/13.1/quartus/Project/Term_project/Library/Hazard_Detector.v}
# Model Technology ModelSim ALTERA vlog 10.1d Compiler 2012.11 Nov  2 2012
# -- Compiling module Hazard_Detector
# 
# Top level modules:
# 	Hazard_Detector
# vlog -vlog01compat -work work +incdir+X:/altera/13.1/quartus/Project/Term_project/Library {X:/altera/13.1/quartus/Project/Term_project/Library/Mux2to1_16bits.v}
# Model Technology ModelSim ALTERA vlog 10.1d Compiler 2012.11 Nov  2 2012
# -- Compiling module Mux2to1_16bits
# 
# Top level modules:
# 	Mux2to1_16bits
# vlog -vlog01compat -work work +incdir+X:/altera/13.1/quartus/Project/Term_project/Library {X:/altera/13.1/quartus/Project/Term_project/Library/Branch_unit.v}
# Model Technology ModelSim ALTERA vlog 10.1d Compiler 2012.11 Nov  2 2012
# -- Compiling module Branch_unit
# 
# Top level modules:
# 	Branch_unit
# 
# vlog -vlog01compat -work work +incdir+X:/altera/13.1/quartus/Project/Term_project/RISC_complete {X:/altera/13.1/quartus/Project/Term_project/RISC_complete/RISC_complete_tb.v}
# Model Technology ModelSim ALTERA vlog 10.1d Compiler 2012.11 Nov  2 2012
# -- Compiling module RISC_complete_tb
# 
# Top level modules:
# 	RISC_complete_tb
# 
# vsim -t 1ps -L altera_ver -L lpm_ver -L sgate_ver -L altera_mf_ver -L altera_lnsim_ver -L cycloneiv_hssi_ver -L cycloneiv_pcie_hip_ver -L cycloneiv_ver -L rtl_work -L work -voptargs="+acc"  RISC_complete_tb
# vsim -L altera_ver -L lpm_ver -L sgate_ver -L altera_mf_ver -L altera_lnsim_ver -L cycloneiv_hssi_ver -L cycloneiv_pcie_hip_ver -L cycloneiv_ver -L rtl_work -L work -voptargs=\"+acc\" -t 1ps RISC_complete_tb 
# Loading work.RISC_complete_tb
# Loading work.RISC_complete
# Loading work.DFF_16bits
# Loading work.Mux2to1_16bits
# Loading work.Memory256_16bits
# Loading work.Decoder3to8
# Loading work.Mux8to1_16bits
# Loading work.Memory32_8bits
# Loading work.Instruction_Decoder
# Loading work.Controller
# Loading work.Branch_unit
# Loading work.RF8_16bits
# Loading work.Hazard_Detector
# Loading work.Mux4to1_16bits
# Loading work.Forwarding_unit
# Loading work.ALU_16bits
# Loading work.FA_16bits
# ** Warning: (vsim-3015) X:/altera/13.1/quartus/Project/Term_project/RISC_complete/RISC_complete.v(129): [PCDPC] - Port size (1 or 1) does not match connection size (32) for port 'en'. The port definition is at: X:/altera/13.1/quartus/Project/Term_project/Library/DFF_16bits.v(3).
# 
#         Region: /RISC_complete_tb/uut/D4_Inst
# ** Warning: (vsim-3015) X:/altera/13.1/quartus/Project/Term_project/RISC_complete/RISC_complete.v(130): [PCDPC] - Port size (1 or 1) does not match connection size (32) for port 'en'. The port definition is at: X:/altera/13.1/quartus/Project/Term_project/Library/DFF_16bits.v(3).
# 
#         Region: /RISC_complete_tb/uut/D4_PC
# ** Warning: (vsim-3015) X:/altera/13.1/quartus/Project/Term_project/RISC_complete/RISC_complete.v(164): [PCDPC] - Port size (1 or 1) does not match connection size (32) for port 'rst'. The port definition is at: X:/altera/13.1/quartus/Project/Term_project/Library/RF8_16bits.v(4).
# 
#         Region: /RISC_complete_tb/uut/RF0
# ** Warning: (vsim-3015) X:/altera/13.1/quartus/Project/Term_project/RISC_complete/RISC_complete.v(177): [PCDPC] - Port size (1 or 1) does not match connection size (32) for port 'rst'. The port definition is at: X:/altera/13.1/quartus/Project/Term_project/Library/Hazard_Detector.v(5).
# 
#         Region: /RISC_complete_tb/uut/HD0
# ** Warning: (vsim-3015) X:/altera/13.1/quartus/Project/Term_project/RISC_complete/RISC_complete.v(220): [PCDPC] - Port size (1 or 1) does not match connection size (32) for port 'en'. The port definition is at: X:/altera/13.1/quartus/Project/Term_project/Library/DFF_16bits.v(3).
# 
#         Region: /RISC_complete_tb/uut/D3_Rs
# ** Warning: (vsim-3015) X:/altera/13.1/quartus/Project/Term_project/RISC_complete/RISC_complete.v(221): [PCDPC] - Port size (1 or 1) does not match connection size (32) for port 'en'. The port definition is at: X:/altera/13.1/quartus/Project/Term_project/Library/DFF_16bits.v(3).
# 
#         Region: /RISC_complete_tb/uut/D3_Rt
# ** Warning: (vsim-3015) X:/altera/13.1/quartus/Project/Term_project/RISC_complete/RISC_complete.v(222): [PCDPC] - Port size (1 or 1) does not match connection size (32) for port 'en'. The port definition is at: X:/altera/13.1/quartus/Project/Term_project/Library/DFF_16bits.v(3).
# 
#         Region: /RISC_complete_tb/uut/D3_Imm
# ** Warning: (vsim-3015) X:/altera/13.1/quartus/Project/Term_project/RISC_complete/RISC_complete.v(223): [PCDPC] - Port size (1 or 1) does not match connection size (32) for port 'en'. The port definition is at: X:/altera/13.1/quartus/Project/Term_project/Library/DFF_16bits.v(3).
# 
#         Region: /RISC_complete_tb/uut/D3_Inst
# ** Warning: (vsim-3015) X:/altera/13.1/quartus/Project/Term_project/RISC_complete/RISC_complete.v(224): [PCDPC] - Port size (1 or 1) does not match connection size (32) for port 'en'. The port definition is at: X:/altera/13.1/quartus/Project/Term_project/Library/DFF_16bits.v(3).
# 
#         Region: /RISC_complete_tb/uut/D3_PC
# ** Warning: (vsim-3015) X:/altera/13.1/quartus/Project/Term_project/RISC_complete/RISC_complete.v(240): [PCDPC] - Port size (16 or 16) does not match connection size (32) for port 'Din3'. The port definition is at: X:/altera/13.1/quartus/Project/Term_project/Library/Mux4to1_16bits.v(2).
# 
#         Region: /RISC_complete_tb/uut/Mux_ALU_A_target
# ** Warning: (vsim-3015) X:/altera/13.1/quartus/Project/Term_project/RISC_complete/RISC_complete.v(256): [PCDPC] - Port size (16 or 16) does not match connection size (1) for port 'Din2'. The port definition is at: X:/altera/13.1/quartus/Project/Term_project/Library/Mux4to1_16bits.v(2).
# 
#         Region: /RISC_complete_tb/uut/Mux_ALU_B_target
# ** Warning: (vsim-3015) X:/altera/13.1/quartus/Project/Term_project/RISC_complete/RISC_complete.v(322): [PCDPC] - Port size (1 or 1) does not match connection size (32) for port 'en'. The port definition is at: X:/altera/13.1/quartus/Project/Term_project/Library/DFF_16bits.v(3).
# 
#         Region: /RISC_complete_tb/uut/D2_sum
# ** Warning: (vsim-3015) X:/altera/13.1/quartus/Project/Term_project/RISC_complete/RISC_complete.v(323): [PCDPC] - Port size (1 or 1) does not match connection size (32) for port 'en'. The port definition is at: X:/altera/13.1/quartus/Project/Term_project/Library/DFF_16bits.v(3).
# 
#         Region: /RISC_complete_tb/uut/D2_Rt
# ** Warning: (vsim-3015) X:/altera/13.1/quartus/Project/Term_project/RISC_complete/RISC_complete.v(324): [PCDPC] - Port size (1 or 1) does not match connection size (32) for port 'en'. The port definition is at: X:/altera/13.1/quartus/Project/Term_project/Library/DFF_16bits.v(3).
# 
#         Region: /RISC_complete_tb/uut/D2_Inst
# ** Warning: (vsim-3015) X:/altera/13.1/quartus/Project/Term_project/RISC_complete/RISC_complete.v(325): [PCDPC] - Port size (1 or 1) does not match connection size (32) for port 'en'. The port definition is at: X:/altera/13.1/quartus/Project/Term_project/Library/DFF_16bits.v(3).
# 
#         Region: /RISC_complete_tb/uut/D2_PC
# ** Warning: (vsim-3015) X:/altera/13.1/quartus/Project/Term_project/RISC_complete/RISC_complete.v(355): [PCDPC] - Port size (1 or 1) does not match connection size (32) for port 'en'. The port definition is at: X:/altera/13.1/quartus/Project/Term_project/Library/DFF_16bits.v(3).
# 
#         Region: /RISC_complete_tb/uut/D1_wr_data
# ** Warning: (vsim-3015) X:/altera/13.1/quartus/Project/Term_project/RISC_complete/RISC_complete.v(356): [PCDPC] - Port size (1 or 1) does not match connection size (32) for port 'en'. The port definition is at: X:/altera/13.1/quartus/Project/Term_project/Library/DFF_16bits.v(3).
# 
#         Region: /RISC_complete_tb/uut/D1_Inst
# ** Warning: (vsim-3015) X:/altera/13.1/quartus/Project/Term_project/RISC_complete/RISC_complete.v(357): [PCDPC] - Port size (1 or 1) does not match connection size (32) for port 'en'. The port definition is at: X:/altera/13.1/quartus/Project/Term_project/Library/DFF_16bits.v(3).
# 
#         Region: /RISC_complete_tb/uut/D1_PC
# ** Warning: (vsim-3015) X:/altera/13.1/quartus/Project/Term_project/RISC_complete/RISC_complete.v(361): [PCDPC] - Port size (16 or 16) does not match connection size (1) for port 'Din'. The port definition is at: X:/altera/13.1/quartus/Project/Term_project/Library/DFF_16bits.v(2).
# 
#         Region: /RISC_complete_tb/uut/Dfor_RF_wr_en
# ** Warning: (vsim-3015) X:/altera/13.1/quartus/Project/Term_project/RISC_complete/RISC_complete.v(361): [PCDPC] - Port size (1 or 1) does not match connection size (32) for port 'en'. The port definition is at: X:/altera/13.1/quartus/Project/Term_project/Library/DFF_16bits.v(3).
# 
#         Region: /RISC_complete_tb/uut/Dfor_RF_wr_en
# ** Warning: (vsim-3015) X:/altera/13.1/quartus/Project/Term_project/RISC_complete/RISC_complete.v(361): [PCDPC] - Port size (16 or 16) does not match connection size (1) for port 'Dout'. The port definition is at: X:/altera/13.1/quartus/Project/Term_project/Library/DFF_16bits.v(4).
# 
#         Region: /RISC_complete_tb/uut/Dfor_RF_wr_en
# ** Warning: (vsim-3015) X:/altera/13.1/quartus/Project/Term_project/RISC_complete/RISC_complete.v(362): [PCDPC] - Port size (1 or 1) does not match connection size (32) for port 'en'. The port definition is at: X:/altera/13.1/quartus/Project/Term_project/Library/DFF_16bits.v(3).
# 
#         Region: /RISC_complete_tb/uut/Dfor_wr_data
# ** Warning: (vsim-3015) X:/altera/13.1/quartus/Project/Term_project/RISC_complete/RISC_complete.v(363): [PCDPC] - Port size (1 or 1) does not match connection size (32) for port 'en'. The port definition is at: X:/altera/13.1/quartus/Project/Term_project/Library/DFF_16bits.v(3).
# 
#         Region: /RISC_complete_tb/uut/Dfor_Inst
# 
# add wave *
# view structure
# .main_pane.structure.interior.cs.body.struct
# view signals
# .main_pane.objects.interior.cs.body.tree
# run -all
# 0ns x 0 0 0 0 xxxx xxxx xxxx 0000 
# 0
# 15ns 0 0 0 0 0 xxxx xxxx xxxx 0000 
# 0
# 30ns 1 0 0 0 0 xxxx xxxx xxxx 0000 
# 0
# 45ns 0 0 0 0 0 xxxx xxxx xxxx 0000 
# 0
# 60ns 1 0 0 0 0 xxxx xxxx xxxx 0000 
# 0
# 75ns 0 0 0 0 0 xxxx xxxx xxxx 0000 
# 0
# 90ns 1 0 0 0 0 xxxx xxxx xxxx 0000 
# 0
# 105ns 0 0 0 0 0 xxxx xxxx xxxx 0000 
# 0
# 120ns 1 0 0 0 0 xxxx xxxx xxxx 0000 
# 0
# 135ns 0 0 0 0 0 xxxx xxxx xxxx 0000 
# 0
# 150ns 1 0 0 0 0 xxxx xxxx xxxx 0000 
# 0
# 165ns 0 0 0 0 0 xxxx xxxx xxxx 0000 
# 0
# 180ns 1 0 0 0 0 xxxx xxxx xxxx 0000 
# 0
# 195ns 0 0 0 0 0 xxxx xxxx xxxx 0000 
# 0
# 210ns 1 0 0 0 0 xxxx xxxx xxxx 0000 
# 0
# 225ns 0 0 0 0 0 xxxx xxxx xxxx 0000 
# 0
# 240ns 1 0 0 0 0 xxxx xxxx xxxx 0000 
# 0
# 255ns 0 0 0 0 0 xxxx xxxx xxxx 0000 
# 0
# 270ns 1 0 0 0 0 xxxx xxxx xxxx 0000 
# 0
# 285ns 0 0 0 0 0 xxxx xxxx xxxx 0000 
# 0
# 300ns 1 0 0 0 0 xxxx xxxx xxxx 0000 
# 0
# 315ns 0 0 0 0 0 xxxx xxxx xxxx 0000 
# 0
# 330ns 1 0 0 0 0 xxxx xxxx xxxx 0000 
# 0
# 345ns 0 0 0 0 0 xxxx xxxx xxxx 0000 
# 0
# 360ns 1 0 0 0 0 xxxx xxxx xxxx 0000 
# 0
# 375ns 0 0 0 0 0 xxxx xxxx xxxx 0000 
# 0
# 390ns 1 0 0 0 0 xxxx xxxx xxxx 0000 
# 0
# 405ns 0 0 0 0 0 xxxx xxxx xxxx 0000 
# 0
# 420ns 1 0 0 0 0 xxxx xxxx xxxx 0000 
# 0
# 435ns 0 0 0 0 0 xxxx xxxx xxxx 0000 
# 0
# 450ns 1 0 0 0 0 xxxx xxxx xxxx 0000 
# 0
# 465ns 0 0 0 0 0 xxxx xxxx xxxx 0000 
# 0
# 480ns 1 0 0 0 0 xxxx xxxx xxxx 0000 
# 0
# 495ns 0 0 0 0 0 xxxx xxxx xxxx 0000 
# 0
# 510ns 1 0 0 0 0 xxxx xxxx xxxx 0000 
# 0
# 525ns 0 0 0 0 0 xxxx xxxx xxxx 0000 
# 0
# 540ns 1 0 0 0 0 xxxx xxxx xxxx 0000 
# 0
# 555ns 0 0 0 0 0 xxxx xxxx xxxx 0000 
# 0
# 570ns 1 0 0 0 0 xxxx xxxx xxxx 0000 
# 0
# 585ns 0 0 0 0 0 xxxx xxxx xxxx 0000 
# 0
# 600ns 1 0 0 0 0 xxxx xxxx xxxx 0000 
# 0
# 615ns 0 0 0 0 0 xxxx xxxx xxxx 0000 
# 0
# 630ns 1 0 0 0 0 xxxx xxxx xxxx 0000 
# 0
# 645ns 0 0 1 0 1 0000 1025 xxxx 0000 
# 0
# 660ns 1 0 1 0 1 0000 1025 xxxx 0000 
# 0
# 675ns 0 0 1 0 1 0001 0863 xxxx 0000 
# 0
# 690ns 1 0 1 0 1 0001 0863 xxxx 0000 
# 0
# 705ns 0 0 1 0 1 0002 e000 xxxx 0000 
# 0
# 720ns 1 0 1 0 1 0002 e000 xxxx 0000 
# 0
# 735ns 0 0 1 0 1 0003 1900 xxxx 0000 
# 0
# 750ns 1 0 1 0 1 0003 1900 xxxx 0000 
# 0
# 765ns 0 0 1 0 1 0004 1a01 xxxx 0000 
# 0
# 780ns 1 0 1 0 1 0004 1a01 xxxx 0000 
# 0
# 795ns 0 0 1 0 1 0005 e020 xxxx 0000 
# 0
# 810ns 1 0 1 0 1 0005 e020 xxxx 0000 
# 0
# 825ns 0 0 1 0 1 0007 0328 xxxx 0000 
# 0
# 840ns 1 0 1 0 1 0007 0328 xxxx 0000 
# 0
# 855ns 0 0 1 0 1 0008 e060 xxxx 0000 
# 0
# 870ns 1 0 1 0 1 0008 e060 xxxx 0000 
# 0
# 885ns 0 0 1 0 1 0009 032a xxxx 0000 
# 0
# 900ns 1 0 1 0 1 0009 032a xxxx 0000 
# 0
# 915ns 0 0 1 0 1 000a e060 xxxx 0000 
# 0
# 930ns 1 0 1 0 1 000a e060 xxxx 0000 
# 0
# 945ns 0 0 1 0 1 000b e001 xxxx 0000 
# 0
# 960ns 1 0 1 0 1 000b e001 xxxx 0000 
# 0
# 975ns 0 0 1 1 1 0025 0047 xxxx 0000 
# 0
# 990ns 1 0 1 1 1 0025 0047 xxxx 0000 
# 0
# 1005ns 0 0 1 1 1 0026 0089 xxxx 0000 
# 0
# 1020ns 1 0 1 1 1 0026 0089 xxxx 0000 
# 0
# 1035ns 0 0 0 0 1 0026 0089 xxxx 0000 
# 0
# 1050ns 1 0 0 0 1 0026 0089 xxxx 0000 
# 0
# 1065ns 0 0 0 0 1 0000 0089 xxxx 0000 
# 0
# 1080ns 1 0 0 0 1 0000 0089 xxxx 0000 
# 0
# 1095ns 0 0 0 0 1 0001 0089 xxxx 0000 
# 0
# 1110ns 1 0 0 0 1 0001 0089 xxxx 0000 
# 0
# 1125ns 0 0 0 0 1 0002 0089 xxxx 0000 
# 0
# 1140ns 1 0 0 0 1 0002 0089 xxxx 0000 
# 0
# 1155ns 0 0 0 0 1 0003 0089 xxxx 0000 
# 0
# 1170ns 1 0 0 0 1 0003 0089 xxxx 0000 
# 0
# 1185ns 0 0 0 0 1 0004 0089 xxxx 0000 
# 0
# 1200ns 1 0 0 0 1 0004 0089 xxxx 0000 
# 0
# 1215ns 0 0 0 0 1 0005 0089 xxxx 0000 
# 0
# 1230ns 1 0 0 0 1 0005 0089 xxxx 0000 
# 0
# 1245ns 0 0 0 0 1 0006 0089 xxxx 0000 
# 0
# 1260ns 1 0 0 0 1 0006 0089 xxxx 0000 
# 0
# 1275ns 0 0 0 0 1 0007 0089 xxxx 0000 
# 0
# 1290ns 1 0 0 0 1 0007 0089 xxxx 0000 
# 0
# 1305ns 0 0 0 0 1 0008 0089 xxxx 0000 
# 0
# 1320ns 1 0 0 0 1 0008 0089 xxxx 0000 
# 0
# 1335ns 0 0 0 0 1 0009 0089 xxxx 0000 
# 0
# 1350ns 1 0 0 0 1 0009 0089 xxxx 0000 
# 0
# 1365ns 0 0 0 0 1 000a 0089 xxxx 0000 
# 0
# 1380ns 1 0 0 0 1 000a 0089 xxxx 0000 
# 0
# 1395ns 0 0 0 0 1 000b 0089 xxxx 0000 
# 0
# 1410ns 1 0 0 0 1 000b 0089 xxxx 0000 
# 0
# 1425ns 0 0 0 0 1 000c 0089 xxxx 0000 
# 0
# 1440ns 1 0 0 0 1 000c 0089 xxxx 0000 
# 0
# 1455ns 0 0 0 0 1 000d 0089 xxxx 0000 
# 0
# 1470ns 1 0 0 0 1 000d 0089 xxxx 0000 
# 0
# 1485ns 0 0 0 0 1 000e 0089 xxxx 0000 
# 0
# 1500ns 1 0 0 0 1 000e 0089 xxxx 0000 
# 0
# 1515ns 0 0 0 0 1 000f 0089 xxxx 0000 
# 0
# 1530ns 1 0 0 0 1 000f 0089 xxxx 0000 
# 0
# 1545ns 0 0 0 0 1 0010 0089 xxxx 0000 
# 0
# 1560ns 1 0 0 0 1 0010 0089 xxxx 0000 
# 0
# 1575ns 0 0 0 0 1 0011 0089 xxxx 0000 
# 0
# 1590ns 1 0 0 0 1 0011 0089 xxxx 0000 
# 0
# 1605ns 0 0 0 0 1 0012 0089 xxxx 0000 
# 0
# 1620ns 1 0 0 0 1 0012 0089 xxxx 0000 
# 0
# 1635ns 0 0 0 0 1 0013 0089 xxxx 0000 
# 0
# 1650ns 1 0 0 0 1 0013 0089 xxxx 0000 
# 0
# 1665ns 0 0 0 0 1 0014 0089 xxxx 0000 
# 0
# 1680ns 1 0 0 0 1 0014 0089 xxxx 0000 
# 0
# 1695ns 0 0 0 0 1 0015 0089 xxxx 0000 
# 0
# 1710ns 1 0 0 0 1 0015 0089 xxxx 0000 
# 0
# 1725ns 0 0 0 0 1 0016 0089 xxxx 0000 
# 0
# 1740ns 1 0 0 0 1 0016 0089 xxxx 0000 
# 0
# 1755ns 0 0 0 0 1 0017 0089 xxxx 0000 
# 0
# 1770ns 1 0 0 0 1 0017 0089 xxxx 0000 
# 0
# 1785ns 0 0 0 0 1 0018 0089 xxxx 0000 
# 0
# 1800ns 1 0 0 0 1 0018 0089 xxxx 0000 
# 0
# 1815ns 0 0 0 0 1 0019 0089 xxxx 0000 
# 0
# 1830ns 1 0 0 0 1 0019 0089 xxxx 0000 
# 0
# 1845ns 0 0 0 0 1 001a 0089 xxxx 0000 
# 0
# 1860ns 1 0 0 0 1 001a 0089 xxxx 0000 
# 0
# 1875ns 0 0 0 0 1 001b 0089 xxxx 0000 
# 0
# 1890ns 1 0 0 0 1 001b 0089 xxxx 0000 
# 0
# 1905ns 0 0 0 0 1 001c 0089 xxxx 0000 
# 0
# 1920ns 1 0 0 0 1 001c 0089 xxxx 0000 
# 0
# 1935ns 0 0 0 0 1 001d 0089 xxxx 0000 
# 0
# 1950ns 1 0 0 0 1 001d 0089 xxxx 0000 
# 0
# 1965ns 0 0 0 0 1 001e 0089 xxxx 0000 
# 0
# 1980ns 1 0 0 0 1 001e 0089 xxxx 0000 
# 0
# 1995ns 0 0 0 0 1 001f 0089 xxxx 0000 
# 0
# 2010ns 1 0 0 0 1 001f 0089 xxxx 0000 
# 0
# 2025ns 0 0 0 0 1 0020 0089 xxxx 0000 
# 0
# 2040ns 1 0 0 0 1 0020 0089 xxxx 0000 
# 0
# 2055ns 0 0 0 0 1 0021 0089 xxxx 0000 
# 0
# 2070ns 1 0 0 0 1 0021 0089 xxxx 0000 
# 0
# 2085ns 0 0 0 0 1 0022 0089 xxxx 0000 
# 0
# 2100ns 1 0 0 0 1 0022 0089 xxxx 0000 
# 0
# 2115ns 0 0 0 0 1 0023 0089 xxxx 0000 
# 0
# 2130ns 1 0 0 0 1 0023 0089 xxxx 0000 
# 0
# 2145ns 0 0 0 0 1 0024 0089 xxxx 0000 
# 0
# 2160ns 1 0 0 0 1 0024 0089 xxxx 0000 
# 0
# 2175ns 0 0 0 0 1 0025 0089 xxxx 0000 
# 0
# 2190ns 1 0 0 0 1 0025 0089 xxxx 0000 
# 0
# 2205ns 0 0 0 0 1 0026 0089 xxxx 0000 
# 0
# 2220ns 1 0 0 0 1 0026 0089 xxxx 0000 
# 0
# 2235ns 0 0 0 0 1 0027 0089 xxxx 0000 
# 0
# 2250ns 1 0 0 0 1 0027 0089 xxxx 0000 
# 0
# 2265ns 0 0 0 0 1 0028 0089 xxxx 0000 
# 0
# 2280ns 1 0 0 0 1 0028 0089 xxxx 0000 
# 0
# 2295ns 0 0 0 0 1 0029 0089 xxxx 0000 
# 0
# 2310ns 1 0 0 0 1 0029 0089 xxxx 0000 
# 0
# 2325ns 0 0 0 0 1 002a 0089 xxxx 0000 
# 0
# 2340ns 1 0 0 0 1 002a 0089 xxxx 0000 
# 0
# 2355ns 0 0 0 0 1 002b 0089 xxxx 0000 
# 0
# 2370ns 1 0 0 0 1 002b 0089 xxxx 0000 
# 0
# 2385ns 0 0 0 0 1 002c 0089 xxxx 0000 
# 0
# 2400ns 1 0 0 0 1 002c 0089 xxxx 0000 
# 0
# 2415ns 0 0 0 0 1 002d 0089 xxxx 0000 
# 0
# 2430ns 1 0 0 0 1 002d 0089 xxxx 0000 
# 0
# 2445ns 0 0 0 0 1 002e 0089 xxxx 0000 
# 0
# 2460ns 1 0 0 0 1 002e 0089 xxxx 0000 
# 0
# 2475ns 0 0 0 0 1 002f 0089 xxxx 0000 
# 0
# 2490ns 1 0 0 0 1 002f 0089 xxxx 0000 
# 0
# 2505ns 0 0 0 0 1 0030 0089 xxxx 0000 
# 0
# 2520ns 1 0 0 0 1 0030 0089 xxxx 0000 
# 0
# 2535ns 0 0 0 0 1 0031 0089 xxxx 0000 
# 0
# 2550ns 1 0 0 0 1 0031 0089 xxxx 0000 
# 0
# 2565ns 0 0 0 0 1 0032 0089 xxxx 0000 
# 0
# 2580ns 1 0 0 0 1 0032 0089 xxxx 0000 
# 0
# 2595ns 0 0 0 0 1 0033 0089 xxxx 0000 
# 0
# 2610ns 1 0 0 0 1 0033 0089 xxxx 0000 
# 0
# 2625ns 0 0 0 0 1 0034 0089 xxxx 0000 
# 0
# 2640ns 1 0 0 0 1 0034 0089 xxxx 0000 
# 0
# 2655ns 0 0 0 0 1 0035 0089 xxxx 0000 
# 0
# 2670ns 1 0 0 0 1 0035 0089 xxxx 0000 
# 0
# 2685ns 0 0 0 0 1 0036 0089 xxxx 0000 
# 0
# 2700ns 1 0 0 0 1 0036 0089 xxxx 0000 
# 0
# 2715ns 0 0 0 0 1 0037 0089 xxxx 0000 
# 0
# 2730ns 1 0 0 0 1 0037 0089 xxxx 0000 
# 0
# 2745ns 0 0 0 0 1 0038 0089 xxxx 0000 
# 0
# 2760ns 1 0 0 0 1 0038 0089 xxxx 0000 
# 0
# 2775ns 0 0 0 0 1 0039 0089 xxxx 0000 
# 0
# 2790ns 1 0 0 0 1 0039 0089 xxxx 0000 
# 0
# 2805ns 0 0 0 0 1 003a 0089 xxxx 0000 
# 0
# 2820ns 1 0 0 0 1 003a 0089 xxxx 0000 
# 0
# 2835ns 0 0 0 0 1 003b 0089 xxxx 0000 
# 0
# 2850ns 1 0 0 0 1 003b 0089 xxxx 0000 
# 0
# 2865ns 0 0 0 0 1 003c 0089 xxxx 0000 
# 0
# 2880ns 1 0 0 0 1 003c 0089 xxxx 0000 
# 0
# 2895ns 0 0 0 0 1 003d 0089 xxxx 0000 
# 0
# 2910ns 1 0 0 0 1 003d 0089 xxxx 0000 
# 0
# 2925ns 0 0 0 0 1 003e 0089 xxxx 0000 
# 0
# 2940ns 1 0 0 0 1 003e 0089 xxxx 0000 
# 0
# 2955ns 0 0 0 0 1 003f 0089 xxxx 0000 
# 0
# 2970ns 1 0 0 0 1 003f 0089 xxxx 0000 
# 0
# 2985ns 0 0 0 0 1 0040 0089 xxxx 0000 
# 0
# 3000ns 1 0 0 0 1 0040 0089 xxxx 0000 
# 0
# 3015ns 0 0 0 0 1 0041 0089 xxxx 0000 
# 0
# 3030ns 1 0 0 0 1 0041 0089 xxxx 0000 
# 0
# 3045ns 0 0 0 0 1 0042 0089 xxxx 0000 
# 0
# 3060ns 1 0 0 0 1 0042 0089 xxxx 0000 
# 0
# 3075ns 0 0 0 0 1 0043 0089 xxxx 0000 
# 0
# 3090ns 1 0 0 0 1 0043 0089 xxxx 0000 
# 0
# 3105ns 0 0 0 0 1 0044 0089 xxxx 0000 
# 0
# 3120ns 1 0 0 0 1 0044 0089 xxxx 0000 
# 0
# 3135ns 0 0 0 0 1 0045 0089 xxxx 0000 
# 0
# 3150ns 1 0 0 0 1 0045 0089 xxxx 0000 
# 0
# 3165ns 0 0 0 0 1 0046 0089 xxxx 0000 
# 0
# 3180ns 1 0 0 0 1 0046 0089 xxxx 0000 
# 0
